name;;Matrix Element;
Summary;;Protocol that bridges all;Assume using Matrix Synapse as server
Android Google Play;yes;https://matrix.org/docs/projects/client/element-android;
Android F-droid/apk;yes;https://f-droid.org/en/packages/im.vector.app/;
Other mobile;no;KaiOS unsupported https://github.com/vector-im/element-web/issues/13800#issuecomment-633658482;
Apple iOS;yes;https://matrix.org/docs/projects/client/element-ios;
Desktop;yes;https://matrix.org/docs/projects/client/element;
Web;yes;https://matrix.org/clients/;
Languages;yes;many https://github.com/vector-im/element-web#user-content-translations https://github.com/vector-im/element-web/tree/master/src/i18n/strings;
Protocol;;Matrix;
Protocol open;yes;https://spec.matrix.org/latest/;
Server license;yes;Apache 2.0 https://github.com/matrix-org/synapse/blob/develop/LICENSE;
Client license;yes;Apache 2.0 https://github.com/vector-im/element-web/blob/develop/LICENSE;
Register without app;yes;;
Spell check;yes;;
Group chat;yes;;
Voice calls;yes;WebRTC https://matrix.org/faq/#what-can-i-actually-do-with-this%3F;
Video calls;yes;WebRTC https://matrix.org/faq/#what-can-i-actually-do-with-this%3F;
Group calls;yes;via Jitsi https://matrix.org/faq/#what-can-i-actually-do-with-this%3F;
Voice messages;yes;https://element.io/blog/introducing-voice-messages-and-so-much-more/;
Screen sharing;yes;https://ems-docs.element.io/Create-a-Conference-Call-in-a-Room.html#screen-sharing;
File transfer;yes;;
Message formatting;yes;CommonMark-flavored markdown https://commonmark.org/help/ https://gitlab.com/bkil/freedom-fighters/-/blob/master/hu/client/matrix-html-syntax.md#element-web-teszt%C3%BCzenet-1;
Emoticons in message;yes;;
Unicode support;yes;;
Emoji composer;yes;;
Emoji reception;yes;;
Sticker packs;yes;mostly through vendor https://github.com/vector-im/element-web/issues/2950#issuecomment-393079408 https://github.com/vector-im/element-web/issues/6534 https://github.com/matrix-org/matrix-doc/pull/1951;
Link preview;yes;;the server of the recipient generates it optionally, disabled by default in E2EE rooms https://matrix.org/blog/2021/10/20/synapse-1-45-1-released/#support-for-oembed-autodiscovery https://matrix-org.github.io/synapse/latest/development/url_previews.html
Inline images;yes;;
Inline videos;yes;;
Polls;yes;;
Reactions;yes;all common Unicode emoji;no custom images, custom text in certain clients
Read public content without registering;yes;guest participant, room peek preview, static HTML view https://spec.matrix.org/latest/client-server-api/#guest-access https://view.matrix.org/;
Multiple devices;yes;;
Online account replica;yes;;
Multiple accounts;yes;Web tabs, Desktop profiles;
Application locking;yes;Android https://github.com/vector-im/element-android/blob/fe9bd38115e080166baaa0c6ebb7d07d53c707a6/vector/src/main/res/xml/vector_settings_pin.xml#L17 iOS https://github.com/vector-im/element-ios/blob/f7a816394741861cb34e5bc44f73350016ca0b29/Riot/Modules/SetPinCode/PinCodePreferences.swift#L33;
Remote message removal;yes;by redaction events https://matrix.org/faq/#what-are-redactions%3F;
Remote message correction;yes;;
Message expiration;partial;per room, no GUI, not default;only through slash-commands in Element, need to enable on each Synapse home server and depending on configuration in each room as well https://matrix-org.github.io/synapse/v1.41/message_retention_policies.html
Presence status;yes;with performance issues https://github.com/vector-im/element-web/issues/2667#issuecomment-787104015;
Presence not mandatory;partial;;some optional in Syphon https://github.com/syphon-org/syphon https://github.com/vector-im/element-web/issues/4706 Element Android can disable it - https://github.com/vector-im/element-android/releases/tag/v1.4.12
Typing indication;yes;;
Read receipts;yes;;
Receipts not mandatory;no;https://github.com/vector-im/element-web/issues/2527;
Vendor can't curate content;yes;self-hosting;
Spam protection;partial;;provided through third-party tools, such as Mjolnir: https://github.com/matrix-org/mjolnir
Account deactivation after device compromise;yes;with second device or Web or Desktop;
Account recovery after device compromise;yes;with second device or Web or Desktop;
End-to-end encryption;yes;https://matrix.org/faq/#which-matrix-clients-support-e2e;
Metadata protection;no;;
Perfect forward secrecy;partial;1-on-1 yes, groups partial;yes for 1-on-1 conversations. partial for group conversations https://www.nccgroup.com/globalassets/our-research/us/public-reports/2016/november/ncc_group_olm_cryptogrpahic_review_2016_11_01.pdf
Security team;partial;;https://matrix.org/security-disclosure-policy/ bad opsec in 2019 https://matrix.org/blog/2019/05/08/post-mortem-and-remediations-for-apr-11-security-incident
Large bug bounty;partial;third-party https://app.intigriti.com/programs/matrix/matrix/detail;
Reproducible builds;no;https://github.com/vector-im/element-web/issues/11848;
Audits;partial;crypto library in 2016 https://matrix.org/blog/2016/11/21/matrixs-olm-end-to-end-encryption-security-assessment-released-and-implemented-cross-platform-on-riot-at-last;
Usage without phone number;yes;;
Transparent financing;yes;VC, merchandise, freemium, donation;https://venturebeat.com/2018/01/29/status-invests-5-million-in-matrix-to-create-a-blockchain-messaging-superpower/ https://web.archive.org/web/20210707191110/https://techcrunch.com/2019/10/10/new-vector-scores-8-5m-to-plug-more-users-into-its-open-decentralized-messaging-matrix/ https://matrix.org/blog/2020/05/21/welcoming-automattic-to-matrix/ https://matrix.org/blog/2021/07/27/element-raises-30-m-to-boost-matrix/ https://matrix.org/faq/#how-is-matrixorg-funded https://element.io/matrix-services/ems-pricing https://shop.matrix.org/ https://patreon.com/matrixdotorg https://liberapay.com/matrixdotorg https://paypal.me/matrixdotorg and Bitcoin, Ethereum
No-cost tier;yes;https://element.io/personal;
Active development;yes;https://github.com/vector-im;
Multi-party development;yes;https://github.com/vector-im/element-web/pulse/monthly https://github.com/vector-im/element-android/pulse/monthly https://github.com/vector-im/element-ios/pulse/monthly;
Identity not controlled by vendor;yes;Unless using matrix.org account;vendor also offers various self-hostable or optional services like stickers, bots and bridges
Offline;partial;compose or read recent Desktop messages, no Web startup;Buffered messages on Element Desktop, Element Web lacks offline startup via Web Workers
Servers required;;Synapse homeserver, notifications push;
Servers optional;;DNS, Element Web app, identity, integrations, ICE, Jitsi https://gitlab.com/libremonde-org/papers/research/privacy-matrix.org/-/blob/master/part1/README.md;
Serverless WAN mode;no;;
Serverless LAN mode;no;;
Network store and forward;yes;;
IP shielded from peers;yes;Not during calls if you enable WebRTC;
Proxy support;partial;yes, through CLI argument;should have a GUI setting https://github.com/vector-im/element-web/issues/3320 TODO auth https://github.com/vector-im/element-meta/issues/200
Third party clients;yes;https://matrix.org/clients/;
Bots available;yes;https://element.io/element-matrix-store#bots;
User addons;yes;https://element.io/element-matrix-store#widgets;
Vendor operated network inaccessible from countries;;China https://www.binwang.me/2020-09-08-Build-An-Instant-Messaging-System-without-Censorship-Deployment-Options.html#conclusion;
Vendor legal entity kind;;For-profit PLC https://find-and-update.company-information.service.gov.uk/company/10873661;
Vendor jurisdiction;;UK with subsidiaries in France & US;
Infrastructure jurisdiction;;Netherlands & Sweden, various for EMS https://element.io/privacy;
Infrastructure provider;;AWS, Cloudflare;
Good ToSDR grade;yes;B https://tosdr.org/en/service/2498;
First release;yes;2014-08-12 https://github.com/matrix-org/synapse/commit/4f475c7697722e946e39e42f38f3dd03a95d8765 https://matrix.org/blog/2014/09/03/hello-world/;
Public issue tracker;yes;https://github.com/vector-im/element-web/issues https://github.com/vector-im/element-ios/issues https://github.com/vector-im/element-android/issues;
No past client vulnerabilities;no;not exploited in the wild https://github.com/vector-im/element-desktop/security/advisories https://github.com/vector-im/element-android/security/advisories https://matrix.org/blog/2022/09/28/upgrade-now-to-address-encryption-vulns-in-matrix-sdks-and-clients https://nebuchadnezzar-megolm.github.io/;
